[
	{
		"Івано-франківська": [
			"Івано-франківськ",
			"Богородчанський",
			"Болехів",
			"Верховинський",
			"Галицький",
			"Городенківський",
			"Долинський",
			"Калуський",
			"Калуш",
			"Коломийський",
			"Коломия",
			"Косівський",
			"Надвірнянський",
			"Рогатинський",
			"Рожнятівський",
			"Снятинський",
			"Тисменицький",
			"Тлумацький",
			"Яремча"
		]
	},
	{
		"Авт.республіка крим": [
			"Євпаторія",
			"Алушта",
			"Армянськ",
			"Білогірський",
			"Бахчисарайський",
			"Джанкой",
			"Джанкойський",
			"Залізничний",
			"Кіровський",
			"Керч",
			"Київський",
			"Красногвардійський",
			"Красноперекопськ",
			"Красноперекопський",
			"Ленінський",
			"Нижньогірський",
			"Первомайський",
			"Роздольненський",
			"Сімферополь",
			"Сімферопольський",
			"Саки",
			"Сакський",
			"Совєтський",
			"Судак",
			"Феодосія",
			"Центральний",
			"Чорноморський",
			"Ялта"
		]
	},
	{
		"Вінницька": [
			"Іллінецький",
			"Барський",
			"Бершадський",
			"Вінницький",
			"Вінниця",
			"Гайсинський",
			"Жмеринка",
			"Жмеринський",
			"Замостянський",
			"Калинівський",
			"Козятин",
			"Козятинський",
			"Крижопільський",
			"Літинський",
			"Ладижин",
			"Ленінський",
			"Липовецький",
			"Могилів-подільський",
			"Могилів-подільський",
			"Мурованокуриловецький",
			"Немирівський",
			"Оратівський",
			"Піщанський",
			"Погребищенський",
			"Староміський",
			"Теплицький",
			"Тиврівський",
			"Томашпільський",
			"Тростянецький",
			"Тульчинський",
			"Хмільник",
			"Хмільницький",
			"Чернівецький",
			"Чечельницький",
			"Шаргородський",
			"Ямпільський"
		]
	},
	{
		"Волинська": [
			"Іваничівський",
			"Володимир-волинський",
			"Горохівський",
			"Ківерцівський",
			"Камінь-каширський",
			"Ковель",
			"Ковельський",
			"Локачинський",
			"Луцьк",
			"Луцький",
			"Любешівський",
			"Любомльський",
			"Маневицький",
			"Нововолинськ",
			"Ратнівський",
			"Рожищенський",
			"Старовижівський",
			"Турійський",
			"Шацький"
		]
	},
	{
		"Дніпропетровська": [
			"Інгулецький",
			"Індустріальний",
			"Амур-нижньодніпровський",
			"Апостолівський",
			"Бабушкінський",
			"Баглійський",
			"Вільногірськ",
			"Васильківський",
			"Верхньодніпровський",
			"Дзержинський",
			"Дніпро",
			"Дніпровський",
			"Дніпропетровський",
			"Довгинцівський",
			"Жовті води",
			"Жовтневий",
			"Заводський",
			"Кіровський",
			"Кам'янське",
			"Красногвардійський",
			"Кривий ріг",
			"Криворізький",
			"Криничанський",
			"Ленінський",
			"Магдалинівський",
			"Марганець",
			"Межевський",
			"Нікополь",
			"Нікопольський",
			"Новомосковськ",
			"Новомосковський",
			"Орджонікідзе",
			"П'ятихатський",
			"Павлоград",
			"Павлоградський",
			"Першотравенськ",
			"Петриківський",
			"Петропавлівський",
			"Покровський",
			"Саксаганський",
			"Самарський",
			"Синельникове",
			"Синельниковський",
			"Солонянський",
			"Софіївський",
			"Тернівка",
			"Тернівський",
			"Томаківський",
			"Царичанський",
			"Центрально-міський",
			"Широківський",
			"Юр'ївський"
		]
	},
	{
		"Донецька": [
			"Єнакієве",
			"Іллічівський",
			"Авдіївка",
			"Амвросіївський",
			"Артемівськ",
			"Артемівський",
			"Будьоннівський",
			"Великоновосілківський",
			"Волноваський",
			"Володарський",
			"Ворошиловський",
			"Вугледар",
			"Гірницький",
			"Горлівка",
			"Дебальцеве",
			"Дзержинськ",
			"Димитров",
			"Добропілля",
			"Добропільський",
			"Докучаївськ",
			"Донецьк",
			"Дружківка",
			"Жданівка",
			"Жовтневий",
			"Кіровське",
			"Кіровський",
			"Калінінський",
			"Київський",
			"Костянтинівка",
			"Костянтинівський",
			"Краматорськ",
			"Красний лиман",
			"Красноармійськ",
			"Красноармійський",
			"Куйбишевський",
			"Ленінський",
			"Лиманський",
			"Макіївка",
			"Мангушський",
			"Мар'їнський",
			"Маріуполь",
			"Микитівський",
			"Новоазовський",
			"Новогродівка",
			"Олександрівський",
			"Орджонікідзевський",
			"Петровський",
			"Приморський",
			"Пролетарський",
			"Селідове",
			"Слов'янськ",
			"Слов'янський",
			"Сніжне",
			"Совєтський",
			"Старобешівський",
			"Тельманівський",
			"Торез",
			"Харцизьк",
			"Центрально-міський",
			"Червоногвардійський",
			"Шахтарськ",
			"Шахтарський",
			"Ясинувата",
			"Ясинуватський"
		]
	},
	{
		"Житомирська": [
			"Ємільчинський",
			"Андрушівський",
			"Баранівський",
			"Бердичів",
			"Бердичівський",
			"Богунський",
			"Брусилівський",
			"Володарсько-волинський",
			"Житомир",
			"Житомирський",
			"Корольовський",
			"Коростенський",
			"Коростень",
			"Коростишівський",
			"Лугинський",
			"Любарський",
			"Малин",
			"Малинський",
			"Народицький",
			"Новоград-волинський",
			"Овруцький",
			"Олевський",
			"Попільнянський",
			"Пулинський",
			"Радомишльський",
			"Романівський",
			"Ружинський",
			"Черняхівський",
			"Чуднівський"
		]
	},
	{
		"Закарпатська": [
			"Іршавський",
			"Берегівський",
			"Берегове",
			"Великоберезнянський",
			"Виноградівський",
			"Воловецький",
			"Міжгірський",
			"Мукачівський",
			"Мукачеве",
			"Перечинський",
			"Рахівський",
			"Свалявський",
			"Тячівський",
			"Ужгород",
			"Ужгородський",
			"Хуст",
			"Хустський",
			"Чоп"
		]
	},
	{
		"Запорізька": [
			"Бердянськ",
			"Бердянський",
			"Вільнянський",
			"Василівський",
			"Великобілозерський",
			"Веселівський",
			"Гуляйпільський",
			"Енергодар",
			"Жовтневий",
			"Заводський",
			"Запоріжжя",
			"Запорізький",
			"Кам'янсько-дніпровський",
			"Комунарський",
			"Куйбишевський",
			"Ленінський",
			"Мелітополь",
			"Мелітопольський",
			"Михайлівський",
			"Новомиколаївський",
			"Оріхівський",
			"Орджонікідзевський",
			"Пологівський",
			"Приазовський",
			"Приморський",
			"Розівський",
			"Токмак",
			"Токмацький",
			"Хортицький",
			"Чернігівський",
			"Шевченківський",
			"Якимівський"
		]
	},
	{
		"Кіровоградська": [
			"Благовіщенський",
			"Бобринецький",
			"Вільшанський",
			"Гайворонський",
			"Голованівський",
			"Добровеличківський",
			"Долинський",
			"Знам'янка",
			"Знам'янський",
			"Кіровоградський",
			"Кіровський",
			"Компаніївський",
			"Кропивницький",
			"Ленінський",
			"Маловисківський",
			"Новгородківський",
			"Новоархангельський",
			"Новомиргородський",
			"Новоукраїнський",
			"Олександрівський",
			"Олександрія",
			"Онуфріївський",
			"Петрівський",
			"Світловодськ",
			"Світловодський",
			"Устинівський"
		]
	},
	{
		"Київ": [
			"Голосіївський",
			"Дарницький",
			"Деснянський",
			"Дніпровський",
			"Київ",
			"Оболонський",
			"Печерський",
			"Подільський",
			"Святошинський",
			"Солом'янський",
			"Шевченківський"
		]
	},
	{
		"Київська": [
			"Іванківський",
			"Ірпінь",
			"Біла церква",
			"Білоцерківський",
			"Баришівський",
			"Березань",
			"Богуславський",
			"Бориспіль",
			"Бориспільський",
			"Бородянський",
			"Бровари",
			"Броварський",
			"Буча",
			"Васильків",
			"Васильківський",
			"Вишгородський",
			"Володарський",
			"Згурівський",
			"Кагарлицький",
			"Києво-святошинський",
			"Макарівський",
			"Миронівський",
			"Обухівський",
			"Переяслав-хмельницький",
			"Поліський",
			"Прип'ять",
			"Ржищів",
			"Рокитнянський",
			"Сквирський",
			"Славутич",
			"Ставищенський",
			"Таращанський",
			"Тетіївський",
			"Фастів",
			"Фастівський",
			"Яготинський"
		]
	},
	{
		"Луганська": [
			"Алчевськ",
			"Антрацит",
			"Антрацитівський",
			"Артемівський",
			"Біловодський",
			"Білокуракинський",
			"Брянка",
			"Жовтневий",
			"Кіровськ",
			"Кам'янобрідський",
			"Красний луч",
			"Краснодон",
			"Краснодонський",
			"Кремінський",
			"Ленінський",
			"Лисичанськ",
			"Луганськ",
			"Лутугинский",
			"Міловський",
			"Марківський",
			"Новоайдарський",
			"Новопсковський",
			"Первомайськ",
			"Перевальський",
			"Попаснянський",
			"Ровеньки",
			"Рубіжне",
			"Сєверодонецьк",
			"Сватівський",
			"Свердловськ",
			"Свердловський",
			"Слов'яносербський",
			"Станично-луганський",
			"Старобільський",
			"Стаханов",
			"Троїцький"
		]
	},
	{
		"Львівська": [
			"Борислав",
			"Бродівський",
			"Буський",
			"Галицький",
			"Городоцький",
			"Дрогобицький",
			"Дрогобич",
			"Жидачівський",
			"Жовківський",
			"Залізничний",
			"Золочівський",
			"Кам'янка-бузький",
			"Личаківський",
			"Львів",
			"Миколаївський",
			"Моршин",
			"Мостиський",
			"Новий розділ",
			"Перемишлянський",
			"Пустомитівський",
			"Радехівський",
			"Самбір",
			"Самбірський",
			"Сихівський",
			"Сколівський",
			"Сокальський",
			"Старосамбірський",
			"Стрий",
			"Стрийський",
			"Трускавець",
			"Турківський",
			"Франківський",
			"Червоноград",
			"Шевченківський",
			"Яворівський"
		]
	},
	{
		"Миколаївська": [
			"Єланецький",
			"Арбузинський",
			"Баштанський",
			"Березанський",
			"Березнегуватський",
			"Братський",
			"Вітовський",
			"Веселинівський",
			"Вознесенськ",
			"Вознесенський",
			"Врадіївський",
			"Доманівський",
			"Заводський",
			"Казанківський",
			"Корабельний",
			"Кривоозерський",
			"Ленінський",
			"Миколаївський",
			"Новобузький",
			"Новоодеський",
			"Очаків",
			"Очаківський",
			"Первомайськ",
			"Первомайський",
			"Снігурівський",
			"Центральний",
			"Южноукраїнськ"
		]
	},
	{
		"Одеська": [
			"Іванівський",
			"Ізмаїл",
			"Ізмаїльський",
			"Іллічівськ",
			"Іллічівський",
			"Ананьївський",
			"Арцизький",
			"Білгород-дністровський",
			"Біляївський",
			"Балтський",
			"Березівський",
			"Болградський",
			"Великомихайлівський",
			"Жовтневий",
			"Захарівський",
			"Кілійський",
			"Київський",
			"Кодимський",
			"Комінтернівський",
			"Котовськ",
			"Котовський",
			"Ленінський",
			"Любашівський",
			"Малиновський",
			"Миколаївський",
			"Овідіопольський",
			"Одеса",
			"Окнянський",
			"Приморський",
			"Ренійський",
			"Роздільнянський",
			"Савранський",
			"Саратський",
			"Суворовський",
			"Тарутинський",
			"Татарбунарський",
			"Теплодар",
			"Центральний",
			"Ширяївський",
			"Южне"
		]
	},
	{
		"Полтавська": [
			"Автозаводський",
			"Великобагачанський",
			"Гадяцький",
			"Глобинський",
			"Горішні плавні",
			"Гребінківський",
			"Диканський",
			"Зіньківський",
			"Карлівський",
			"Київський",
			"Кобеляцький",
			"Козельщинський",
			"Котелевський",
			"Кременчук",
			"Кременчуцький",
			"Крюківський",
			"Ленінський",
			"Лохвицький",
			"Лубенський",
			"Лубни",
			"Машівський",
			"Миргород",
			"Миргородський",
			"Новосанжарський",
			"Октябрський",
			"Оржицький",
			"Пирятинський",
			"Полтава",
			"Полтавський",
			"Решетилівський",
			"Семенівський",
			"Хорольський",
			"Чорнухинський",
			"Чутівський",
			"Шишацький"
		]
	},
	{
		"Рівненська": [
			"Березнівський",
			"Вараш",
			"Володимирецький",
			"Гощанський",
			"Демидівський",
			"Дубенський",
			"Дубно",
			"Дубровицький",
			"Зарічненський",
			"Здолбунівський",
			"Корецький",
			"Костопільський",
			"Млинівський",
			"Острог",
			"Острозький",
			"Рівне",
			"Рівненський",
			"Радивилівський",
			"Рокитнівський",
			"Сарненський"
		]
	},
	{
		"Севастополь": [
			"Балаклавський",
			"Гагарінський",
			"Ленінський",
			"Нахімовський",
			"Севастополь"
		]
	},
	{
		"Сумська": [
			"Білопільський",
			"Буринський",
			"Великописарівський",
			"Глухів",
			"Глухівський",
			"Зарічний",
			"Ковпаківський",
			"Конотоп",
			"Конотопський",
			"Краснопільський",
			"Кролевецький",
			"Лебедин",
			"Лебединський",
			"Липоводолинський",
			"Недригайлівський",
			"Охтирка",
			"Охтирський",
			"Путивльський",
			"Роменський",
			"Ромни",
			"Середино-будський",
			"Суми",
			"Сумський",
			"Тростянецький",
			"Шостка",
			"Шосткинський",
			"Ямпільський"
		]
	},
	{
		"Тернопільська": [
			"Бережанський",
			"Борщівський",
			"Бучацький",
			"Гусятинський",
			"Заліщицький",
			"Збаразький",
			"Зборівський",
			"Козівський",
			"Кременецький",
			"Лановецький",
			"Монастириський",
			"Підволочиський",
			"Підгаєцький",
			"Теребовлянський",
			"Тернопіль",
			"Тернопільський",
			"Чортківський",
			"Шумський"
		]
	},
	{
		"Харківська": [
			"Ізюм",
			"Ізюмський",
			"Балаклійський",
			"Барвінківський",
			"Близнюківський",
			"Богодухівський",
			"Борівський",
			"Валківський",
			"Великобурлуцький",
			"Вовчанський",
			"Дворічанський",
			"Дергачівський",
			"Дзержинський",
			"Жовтневий",
			"Зачепилівський",
			"Зміївський",
			"Золочівський",
			"Кегичівський",
			"Київський",
			"Коломацький",
			"Комінтернівський",
			"Красноградський",
			"Краснокутський",
			"Куп'янськ",
			"Куп'янський",
			"Ленінський",
			"Лозівський",
			"Лозова",
			"Люботин",
			"Московський",
			"Нововодолазький",
			"Орджонікідзевський",
			"Первомайський",
			"Печенізький",
			"Сахновщинський",
			"Фрунзенський",
			"Харків",
			"Харківський",
			"Червонозаводський",
			"Чугуїв",
			"Чугуївський",
			"Шевченківський"
		]
	},
	{
		"Херсонська": [
			"Іванівський",
			"Білозерський",
			"Бериславський",
			"Великолепетиський",
			"Великоолександрівський",
			"Верхньорогачицький",
			"Високопільський",
			"Генічеський",
			"Голопристанський",
			"Горностаївський",
			"Дніпровський",
			"Каланчацький",
			"Каховка",
			"Каховський",
			"Комсомольський",
			"Нижньосірогозький",
			"Нова каховка",
			"Нововоронцовський",
			"Новотроїцький",
			"Олешківський",
			"Суворовський",
			"Херсон",
			"Чаплинський"
		]
	},
	{
		"Хмельницька": [
			"Ізяславський",
			"Білогірський",
			"Віньковецький",
			"Волочиський",
			"Городоцький",
			"Деражнянський",
			"Дунаєвецький",
			"Кам'янець-подільський",
			"Красилівський",
			"Летичівський",
			"Нетішин",
			"Новоушицький",
			"Полонський",
			"Славута",
			"Славутський",
			"Старокостянтинів",
			"Старокостянтинівський",
			"Старосинявський",
			"Теофіпольський",
			"Хмельницький",
			"Чемеровецький",
			"Шепетівка",
			"Шепетівський",
			"Ярмолинецький"
		]
	},
	{
		"Черкаська": [
			"Ватутіне",
			"Городищенський",
			"Драбівський",
			"Жашківський",
			"Звенигородський",
			"Золотоніський",
			"Золотоноша",
			"Кам'янський",
			"Канів",
			"Канівський",
			"Катеринопільський",
			"Корсунь-шевченківський",
			"Лисянський",
			"Маньківський",
			"Монастирищенський",
			"Придніпровський",
			"Сміла",
			"Смілянський",
			"Соснівський",
			"Тальнівський",
			"Уманський",
			"Умань",
			"Христинівський",
			"Черкаси",
			"Черкаський",
			"Чигиринський",
			"Чорнобаївський",
			"Шполянський"
		]
	},
	{
		"Чернівецька": [
			"Вижницький",
			"Герцаївський",
			"Глибоцький",
			"Заставнівський",
			"Кіцманський",
			"Кельменецький",
			"Новодністровськ",
			"Новоселицький",
			"Першотравневий",
			"Путильський",
			"Садгірський",
			"Сокирянський",
			"Сторожинецький",
			"Хотинський",
			"Чернівці",
			"Шевченківський"
		]
	},
	{
		"Чернігівська": [
			"Ічнянський",
			"Бахмацький",
			"Бобровицький",
			"Борзнянський",
			"Варвинський",
			"Городнянський",
			"Деснянський",
			"Козелецький",
			"Коропський",
			"Корюківський",
			"Куликівський",
			"Менський",
			"Ніжин",
			"Ніжинський",
			"Новгород-сіверський",
			"Новозаводський",
			"Носівський",
			"Прилуки",
			"Прилуцький",
			"Ріпкинський",
			"Семенівський",
			"Сосницький",
			"Срібнянський",
			"Талалаївський",
			"Чернігів",
			"Чернігівський",
			"Щорський"
		]
	}
]